

2a SAMPLE OUTPUT

#include <stdio.h>
#include<stdlib.h>
int main(){
    FILE *fp = NULL;
    int ch = 0;
    fp = fopen(__FILE__, "r");
    if(fp == NULL){
        printf("Error in opening the file\n");
        exit(0);
    }
    
    while ((ch=fgetc(fp)) != EOF){
        
        printf("%c",ch);
       
    }
    fclose (fp);
    return 0;
}
***************************************************************

2c SAMPLE OUTPUT

percentage of commented characters in the source code is: 9.8867
***************************************************************

2d SAMPLE OUTPUT

Total no. of variables in the file test.c = 12
****************************************************************


